Batch correction of two-panel CyTOF data
…
Pre-processing data

In this dataset, it seems reasonable to start by looking at the two panels.

# Loading packages
library(cyCombine)
library(tidyverse)
library(Seurat)

# Panel 1 reading
panel1 <- read_csv("dfci1/panel1.csv")
panel1

# A tibble: 69 x 3
   Channel      Marker       Type 
   <chr>        <chr>        <chr>
 1 Time         Time         none 
 2 Event_length Event_length none 
 3 Y89Di        89Y          none 
 4 Pd102Di      102Pd        none 
 5 Rh103Di      103Rh        none 
 6 Pd104Di      104Pd        none 
 7 Pd105Di      105Pd        none 
 8 Pd106Di      106Pd        none 
 9 Pd108Di      108Pd        none 
10 Pd110Di      110Pd        none 
#  with 59 more rows

# Panel 2 reading
panel2 <- read_csv("dfci2/panel2.csv")
panel2

# A tibble: 69 x 3
   Channel      Marker       Type 
   <chr>        <chr>        <chr>
 1 Time         Time         none 
 2 Event_length Event_length none 
 3 Y89Di        89Y          none 
 4 Pd102Di      102Pd        none 
 5 Rh103Di      103Rh        none 
 6 Pd104Di      104Pd        none 
 7 Pd105Di      105Pd        none 
 8 Pd106Di      106Pd        none 
 9 Pd108Di      108Pd        none 
10 Pd110Di      110Pd        none 
#  with 59 more rows
…
